R Notebook: Vowel plot
…
ai_means_tall.mas <- ai_means.mas %>%
    gather("formant_percent", "hz", starts_with("F")) %>%
    separate(formant_percent, into = c("formant", "percent"), extra = "drop") %>%
    spread(formant, hz) %>%
  print()

## # A tibble: 44 x 4
##    ton   percent    F1    F2
##    <fct> <chr>   <dbl> <dbl>
##  1 1     1        562. 1700.
##  2 1     10       562. 1923.
##  3 1     11       810. 2014.
##  4 1     2        601. 1701.
##  5 1     3        595. 1694.
##  6 1     4        556. 1695.
##  7 1     5        535. 1746.
##  8 1     6        488. 1835.
##  9 1     7        422. 1859.
## 10 1     8        373. 1856.
## #  with 34 more rows

ai_means_tall.fem <- ai_means.fem %>%
    gather("formant_percent", "hz", starts_with("F")) %>%
    separate(formant_percent, into = c("formant", "percent"), extra = "drop") %>%
    spread(formant, hz) %>%
  print()

## # A tibble: 44 x 4
##    ton   percent    F1    F2
##    <fct> <chr>   <dbl> <dbl>
##  1 1     1        725. 2008.
##  2 1     10       725. 2090.
##  3 1     11       484. 1975.
##  4 1     2        784. 2000.
##  5 1     3        805. 2006.
##  6 1     4        813. 2002.
##  7 1     5        809. 2008.
##  8 1     6        787. 2038.
##  9 1     7        757. 2039.
## 10 1     8        706. 2113.
## #  with 34 more rows

ai_means_tall.mas$percent<-as.numeric(ai_means_tall.mas$percent)
ai.central.mas.means<-droplevels(subset(ai_means_tall.mas,percent>=3))
ai.central.mas.means<-droplevels(subset(ai.central.mas.means,percent<=9))
ai_means_tall.fem$percent<-as.numeric(ai_means_tall.fem$percent)
ai.central.fem.means<-droplevels(subset(ai_means_tall.fem,percent>=3))
ai.central.fem.means<-droplevels(subset(ai.central.fem.means,percent<=9))

print(ai.central.mas.means)

## # A tibble: 28 x 4
##    ton   percent    F1    F2
##    <fct>   <dbl> <dbl> <dbl>
##  1 1           3  595. 1694.
##  2 1           4  556. 1695.
##  3 1           5  535. 1746.
##  4 1           6  488. 1835.
##  5 1           7  422. 1859.
##  6 1           8  373. 1856.
##  7 1           9  333. 1903.
##  8 2           3  747. 1491.
##  9 2           4  730. 1530.
## 10 2           5  692. 1585.
## #  with 18 more rows
…
ai_means <- ai %>%
    group_by(label) %>%
    summarize_at(vars(F1_1.Hz.:F2_11.Hz.), mean, na.rm = TRUE)

ai_means_tall <- ai_means %>%
    gather("formant_percent", "hz", starts_with("F")) %>%
    separate(formant_percent, into = c("formant", "percent"), extra = "drop") %>%
    spread(formant, hz) %>%
  print()

## # A tibble: 88 x 4
##    label percent    F1    F2
##    <fct> <chr>   <dbl> <dbl>
##  1 F 1   1        725. 2008.
##  2 F 1   10       725. 2090.
##  3 F 1   11       484. 1975.
##  4 F 1   2        784. 2000.
##  5 F 1   3        805. 2006.
##  6 F 1   4        813. 2002.
##  7 F 1   5        809. 2008.
##  8 F 1   6        787. 2038.
##  9 F 1   7        757. 2039.
## 10 F 1   8        706. 2113.
## #  with 78 more rows
…
